Designing Charts in R
…
bikes_adj <-
  readr::read_csv(
    here::here("data", "london-bikes-custom.csv"),
    col_types = "Dcfffilllddddc"
  ) %>%
  mutate(
    season = factor(season, levels = c("spring", "summer", "autumn", "winter")),
    day_night = stringr::str_to_title(day_night),
    is_workday = factor(is_workday, level = c(TRUE, FALSE),
                        labels = c("Workday", "Weekend or Holiday"))
  )

bikes_adj

# A tibble: 1,454 x 14
   date       day_night year  month season count is_work~1 is_we~2 is_ho~3  temp
   <date>     <chr>     <fct> <fct> <fct>  <int> <fct>     <lgl>   <lgl>   <dbl>
 1 2015-01-04 Day       2015  1     winter  6830 Weekend ~ TRUE    FALSE    2.17
 2 2015-01-04 Night     2015  1     winter  2404 Weekend ~ TRUE    FALSE    2.79
 3 2015-01-05 Day       2015  1     winter 14763 Workday   FALSE   FALSE    8.96
 4 2015-01-05 Night     2015  1     winter  5609 Workday   FALSE   FALSE    7.12
 5 2015-01-06 Day       2015  1     winter 14501 Workday   FALSE   FALSE    9   
 6 2015-01-06 Night     2015  1     winter  6112 Workday   FALSE   FALSE    6.71
 7 2015-01-07 Day       2015  1     winter 16358 Workday   FALSE   FALSE    8.17
 8 2015-01-07 Night     2015  1     winter  4706 Workday   FALSE   FALSE    6.68
 9 2015-01-08 Day       2015  1     winter  9971 Workday   FALSE   FALSE    9.46
10 2015-01-08 Night     2015  1     winter  5630 Workday   FALSE   FALSE   10.0 
# ... with 1,444 more rows, 4 more variables: temp_feel <dbl>, humidity <dbl>,
#   wind_speed <dbl>, weather_type <chr>, and abbreviated variable names
#   1: is_workday, 2: is_weekend, 3: is_holiday
…
